%YAML 1.1
%TAG !u! tag:unity3d.com,2011:
--- !u!74 &7400000
AnimationClip:
  m_ObjectHideFlags: 0
  m_CorrespondingSourceObject: {fileID: 0}
  m_PrefabInstance: {fileID: 0}
  m_PrefabAsset: {fileID: 0}
  m_Name: Run
  serializedVersion: 6
  m_Legacy: 0
  m_Compressed: 0
  m_UseHighQualityCurve: 1
  m_RotationCurves: []
  m_CompressedRotationCurves: []
  m_EulerCurves: []
  m_PositionCurves: []
  m_ScaleCurves: []
  m_FloatCurves: []
  m_PPtrCurves:
  - curve:
    - time: 0
      value: {fileID: 21300000, guid: 27ee98aa5bd16ae4ab9c93871e704ece, type: 3}
    - time: 0.083333336
      value: {fileID: 21300000, guid: 6558a7b2f37c9674bb5e99846d18c1cd, type: 3}
    - time: 0.16666667
      value: {fileID: 21300000, guid: 3fbc6b4d8d5eead4681fcb881aee3c41, type: 3}
    - time: 0.25
      value: {fileID: 21300000, guid: af929dcddeed5e3469a55e27ae86e7d0, type: 3}
    - time: 0.33333334
      value: {fileID: 21300000, guid: 84321a67c4f6cc447ac5dea454b7dba0, type: 3}
    - time: 0.41666666
      value: {fileID: 21300000, guid: 761689b1d1a966e458a1bf4dc844dd30, type: 3}
    - time: 0.5
      value: {fileID: 21300000, guid: 6cb2bc9ef4079654c8171abbf935e608, type: 3}
    - time: 0.5833333
      value: {fileID: 21300000, guid: 78c50dc63c664e4439f3203a972981ad, type: 3}
    - time: 0.6666667
      value: {fileID: 21300000, guid: 1987206ec5d82fc498717e0e3eb3c226, type: 3}
    - time: 0.75
      value: {fileID: 21300000, guid: 5a9fe503f0a919f459bc1a8152138602, type: 3}
    attribute: m_Sprite
    path: 
    classID: 212
    script: {fileID: 0}
  m_SampleRate: 12
  m_WrapMode: 0
  m_Bounds:
    m_Center: {x: 0, y: 0, z: 0}
    m_Extent: {x: 0, y: 0, z: 0}
  m_ClipBindingConstant:
    genericBindings:
    - serializedVersion: 2
      path: 0
      attribute: 0
      script: {fileID: 0}
      typeID: 212
      customType: 23
      isPPtrCurve: 1
    pptrCurveMapping:
    - {fileID: 21300000, guid: 27ee98aa5bd16ae4ab9c93871e704ece, type: 3}
    - {fileID: 21300000, guid: 6558a7b2f37c9674bb5e99846d18c1cd, type: 3}
    - {fileID: 21300000, guid: 3fbc6b4d8d5eead4681fcb881aee3c41, type: 3}
    - {fileID: 21300000, guid: af929dcddeed5e3469a55e27ae86e7d0, type: 3}
    - {fileID: 21300000, guid: 84321a67c4f6cc447ac5dea454b7dba0, type: 3}
    - {fileID: 21300000, guid: 761689b1d1a966e458a1bf4dc844dd30, type: 3}
    - {fileID: 21300000, guid: 6cb2bc9ef4079654c8171abbf935e608, type: 3}
    - {fileID: 21300000, guid: 78c50dc63c664e4439f3203a972981ad, type: 3}
    - {fileID: 21300000, guid: 1987206ec5d82fc498717e0e3eb3c226, type: 3}
    - {fileID: 21300000, guid: 5a9fe503f0a919f459bc1a8152138602, type: 3}
  m_AnimationClipSettings:
    serializedVersion: 2
    m_AdditiveReferencePoseClip: {fileID: 0}
    m_AdditiveReferencePoseTime: 0
    m_StartTime: 0
    m_StopTime: 0.8333333
    m_OrientationOffsetY: 0
    m_Level: 0
    m_CycleOffset: 0
    m_HasAdditiveReferencePose: 0
    m_LoopTime: 1
    m_LoopBlend: 0
    m_LoopBlendOrientation: 0
    m_LoopBlendPositionY: 0
    m_LoopBlendPositionXZ: 0
    m_KeepOriginalOrientation: 0
    m_KeepOriginalPositionY: 1
    m_KeepOriginalPositionXZ: 0
    m_HeightFromFeet: 0
    m_Mirror: 0
  m_EditorCurves: []
  m_EulerEditorCurves: []
  m_HasGenericRootTransform: 0
  m_HasMotionFloatCurves: 0
  m_Events: []
