%YAML 1.1
%TAG !u! tag:unity3d.com,2011:
--- !u!74 &7400000
AnimationClip:
  m_ObjectHideFlags: 0
  m_CorrespondingSourceObject: {fileID: 0}
  m_PrefabInstance: {fileID: 0}
  m_PrefabAsset: {fileID: 0}
  m_Name: WalkFemale
  serializedVersion: 6
  m_Legacy: 0
  m_Compressed: 0
  m_UseHighQualityCurve: 1
  m_RotationCurves: []
  m_CompressedRotationCurves: []
  m_EulerCurves: []
  m_PositionCurves: []
  m_ScaleCurves: []
  m_FloatCurves: []
  m_PPtrCurves:
  - curve:
    - time: 0
      value: {fileID: 21300000, guid: 619075ee1de9b24418d174fe523b78b8, type: 3}
    - time: 0.083333336
      value: {fileID: 21300000, guid: 2614e7e874d8c674c80c6618362b93ea, type: 3}
    - time: 0.16666667
      value: {fileID: 21300000, guid: 330489dea88cdfb4cadd3bd1816524bc, type: 3}
    - time: 0.25
      value: {fileID: 21300000, guid: afd34fd7800e0804fab09a9cf52d5ee3, type: 3}
    - time: 0.33333334
      value: {fileID: 21300000, guid: 21a23fdc339036e42899d17f0bcc575f, type: 3}
    - time: 0.41666666
      value: {fileID: 21300000, guid: 1f12b8ca284d28944ac3543e2b1b2b04, type: 3}
    - time: 0.5
      value: {fileID: 21300000, guid: fd0204209af2039489f7ef016f352f03, type: 3}
    - time: 0.5833333
      value: {fileID: 21300000, guid: 537323162076bf44498b142d3559465d, type: 3}
    - time: 0.6666667
      value: {fileID: 21300000, guid: 320b65655413f7b4587dc7f835f89778, type: 3}
    - time: 0.75
      value: {fileID: 21300000, guid: d82a83b9988d0ae48adda421f220b414, type: 3}
    attribute: m_Sprite
    path: 
    classID: 212
    script: {fileID: 0}
  m_SampleRate: 12
  m_WrapMode: 0
  m_Bounds:
    m_Center: {x: 0, y: 0, z: 0}
    m_Extent: {x: 0, y: 0, z: 0}
  m_ClipBindingConstant:
    genericBindings:
    - serializedVersion: 2
      path: 0
      attribute: 0
      script: {fileID: 0}
      typeID: 212
      customType: 23
      isPPtrCurve: 1
    pptrCurveMapping:
    - {fileID: 21300000, guid: 619075ee1de9b24418d174fe523b78b8, type: 3}
    - {fileID: 21300000, guid: 2614e7e874d8c674c80c6618362b93ea, type: 3}
    - {fileID: 21300000, guid: 330489dea88cdfb4cadd3bd1816524bc, type: 3}
    - {fileID: 21300000, guid: afd34fd7800e0804fab09a9cf52d5ee3, type: 3}
    - {fileID: 21300000, guid: 21a23fdc339036e42899d17f0bcc575f, type: 3}
    - {fileID: 21300000, guid: 1f12b8ca284d28944ac3543e2b1b2b04, type: 3}
    - {fileID: 21300000, guid: fd0204209af2039489f7ef016f352f03, type: 3}
    - {fileID: 21300000, guid: 537323162076bf44498b142d3559465d, type: 3}
    - {fileID: 21300000, guid: 320b65655413f7b4587dc7f835f89778, type: 3}
    - {fileID: 21300000, guid: d82a83b9988d0ae48adda421f220b414, type: 3}
  m_AnimationClipSettings:
    serializedVersion: 2
    m_AdditiveReferencePoseClip: {fileID: 0}
    m_AdditiveReferencePoseTime: 0
    m_StartTime: 0
    m_StopTime: 0.8333333
    m_OrientationOffsetY: 0
    m_Level: 0
    m_CycleOffset: 0
    m_HasAdditiveReferencePose: 0
    m_LoopTime: 1
    m_LoopBlend: 0
    m_LoopBlendOrientation: 0
    m_LoopBlendPositionY: 0
    m_LoopBlendPositionXZ: 0
    m_KeepOriginalOrientation: 0
    m_KeepOriginalPositionY: 1
    m_KeepOriginalPositionXZ: 0
    m_HeightFromFeet: 0
    m_Mirror: 0
  m_EditorCurves: []
  m_EulerEditorCurves: []
  m_HasGenericRootTransform: 0
  m_HasMotionFloatCurves: 0
  m_Events: []
